…
Show effect of intervention after 25 days of being imposed in a county.


```r
state_features  %>% 
  filter(days_after_stayhome == 25) %>% 
  select(state, date, cum_deaths, cum_fit_mu, cum_ctr_mu, effect) %>% 
  arrange(desc(effect)) %>% 
  mutate(total_deaths = cumsum(cum_deaths), 
         total_effect = cumsum(effect))
```

```
## # A tibble: 45 x 8
##    state date       cum_deaths cum_fit_mu cum_ctr_mu effect total_deaths
##    <chr> <date>          <dbl>      <dbl>      <dbl>  <dbl>        <dbl>
##  1 New … 2020-04-17      12249     13082.     23716. 10634.        12249
##  2 Wash… 2020-04-18        635       661.      3843.  3181.        12884
##  3 New … 2020-04-16       3517      3321.      4192.   871.        16401
##  4 Mich… 2020-04-19       2372      2674.      3522.   848.        18773
##  5 Sout… 2020-05-03        277       284.       913.   629.        19050
##  6 Mary… 2020-04-25        731       669.      1210.   541.        19781
##  7 Neva… 2020-04-27        207       188.       699.   511.        19988
##  8 Loui… 2020-04-18       1288      1310.      1677.   367.        21276
##  9 Dist… 2020-04-27        185       169.       420.   251.        21461
## 10 Flor… 2020-04-20        826       859.      1071.   212.        22287
## # … with 35 more rows, and 1 more variable: total_effect <dbl>
```
…
```r
state_features %>% 
  mutate(days_after_stayhome = date - stayhome, 
         effect = cum_ctr_mu - cum_fit_mu) %>% 
  filter(days_after_stayhome == 35) %>% 
  select(state, date, cum_deaths, cum_fit_mu, cum_ctr_mu, effect) %>% 
  arrange(desc(effect)) %>% 
  mutate(total_deaths = cumsum(cum_deaths), 
         total_effect = cumsum(effect))
```

```
## # A tibble: 40 x 8
##    state date       cum_deaths cum_fit_mu cum_ctr_mu effect total_deaths
##    <chr> <date>          <dbl>      <dbl>      <dbl>  <dbl>        <dbl>
##  1 New … 2020-04-27      17360     19739.     92391. 72652.        17360
##  2 Wash… 2020-04-28        798       827.     51046. 50219.        18158
##  3 New … 2020-04-26       5941      6201.     21937. 15736.        24099
##  4 Mich… 2020-04-29       3638      4025.     12238.  8213.        27737
##  5 Mary… 2020-05-05       1266      1139.      8450.  7311.        29003
##  6 Flor… 2020-04-30       1272      1365.      7902.  6537.        30275
##  7 Mass… 2020-04-29       3402      3007.      7845.  4838.        33677
##  8 Conn… 2020-04-28       2089      2598.      7305.  4708.        35766
##  9 Loui… 2020-04-28       1787      1934.      5641.  3706.        37553
## 10 Virg… 2020-05-05        717       748.      4159.  3411.        38270
## # … with 30 more rows, and 1 more variable: total_effect <dbl>
```
